Minicurso de verano de Aprendizaje Máquina
…
## [1] "Lambda min: 0.0742735782143339"
## [1] "Error entrenamiento: 0"
## [1] "Error prueba: 0.12"
## [1] "Devianza entrena:0.127"
## [1] "Devianza prueba:0.621"

coeficientes <- predict(mod_x$mod, lambda = 'lambda.min', type = 'coefficients') 
coef_df <- data_frame(palabra = rownames(coeficientes),
                      coef = coeficientes[,1])
arrange(coef_df, coef) %>% print(n=20)

## # A tibble: 4,107 x 2
##    palabra        coef
##    <chr>         <dbl>
##  1 (Intercept)  -0.520
##  2 tiresome     -0.318
##  3 sloppy       -0.317
##  4 tedious      -0.313
##  5 designed     -0.287
##  6 profanity    -0.286
##  7 forgot       -0.285
##  8 insulting    -0.273
##  9 redeeming    -0.268
## 10 ludicrous    -0.267
## 11 asleep       -0.264
## 12 embarrassing -0.260
## 13 alas         -0.254
## 14 miserably    -0.252
## 15 lifeless     -0.247
## 16 random       -0.242
## 17 abilities    -0.238
## 18 ridiculous   -0.235
## 19 inept        -0.234
## 20 stupidity    -0.231
## # ... with 4,087 more rows

arrange(coef_df, desc(coef)) %>% print(n=20)

## # A tibble: 4,107 x 2
##    palabra       coef
##    <chr>        <dbl>
##  1 refreshing   0.306
##  2 beings       0.289
##  3 underneath   0.287
##  4 commanding   0.260
##  5 outstanding  0.245
##  6 marvelous    0.236
##  7 finest       0.230
##  8 identify     0.228
##  9 enjoyment    0.228
## 10 ralph        0.224
## 11 exceptional  0.220
## 12 threatens    0.218
## 13 mature       0.216
## 14 anger        0.216
## 15 luckily      0.214
## 16 enters       0.213
## 17 overall      0.210
## 18 breathtaking 0.208
## 19 popcorn      0.207
## 20 portrait     0.205
## # ... with 4,087 more rows

Y busquemos las diferencias más grandes del la probabilidad ajustada con la
clase observada

y <- mod_x$prueba$y
x <- mod_x$prueba$x
probs <- predict(mod_x$mod, newx = x, type = 'response', s ='lambda.min')
df_1 <- data_frame(id = rownames(x), y=y, prob = probs[,1]) %>%
  mutate(error = y - prob) %>% arrange(desc(abs(error)))
df_1

## # A tibble: 425 x 4
##    id        y   prob  error
##    <chr> <dbl>  <dbl>  <dbl>
##  1 1508      1 0.0370  0.963
##  2 1461      1 0.0459  0.954
##  3 1490      1 0.0900  0.910
##  4 222       0 0.896  -0.896
##  5 1933      1 0.106   0.894
##  6 1642      1 0.131   0.869
##  7 25        0 0.864  -0.864
##  8 728       0 0.860  -0.860
##  9 1050      1 0.146   0.854
## 10 415       0 0.850  -0.850
## # ... with 415 more rows
…
