Minicurso de verano de Aprendizaje Máquina
…
El error de entrenamiento es considerablemente menor para la curva
roja, y es más grande para la recta.

Sin embargo, consideremos que tenemos una nueva muestra (de prueba).

set.seed(218052272)
x_0 <- sample(0:13, 100, replace = T)
error <- rnorm(length(x_0), 0, 500)
y_0 <- f(x_0) + error
datos_prueba <- data_frame(x = x_0, y = y_0)
datos_prueba

## # A tibble: 100 x 2
##        x      y
##    <int>  <dbl>
##  1     9  2156.
##  2    11  3227.
##  3     3  2382.
##  4    10  3482.
##  5     7  2733.
##  6     7  2326.
##  7    12  3464.
##  8     0  -564.
##  9    10  3296.
## 10     0   366.
## # ... with 90 more rows
…
