Minicurso de verano de Aprendizaje Máquina
…
Buscamos entonces minimizar la devianza (evaluada en la muestra de prueba),
que corresponde a tomar un valor de \(\lambda\) alrededor de exp(-2).

Discusión: ¿por qué la devianza de prueba tiene esta forma, que es
típica para problemas de regularización?

El modelo final queda como sigue:

df_lambdas 

## # A tibble: 50 x 2
##    modelo lambda
##    <chr>   <dbl>
##  1 s0      247. 
##  2 s1      205. 
##  3 s2      170. 
##  4 s3      141. 
##  5 s4      116. 
##  6 s5       96.5
##  7 s6       80.0
##  8 s7       66.3
##  9 s8       54.9
## 10 s9       45.5
## # ... with 40 more rows
…
