Minicurso de verano de Aprendizaje Máquina
…
Ejemplo

Vamos a generar unos datos con el modelo simple del ejemplo anterior:

library(dplyr)
library(tidyr)
library(kknn)
set.seed(1933)
x <- pmin(rexp(500,1/30),100)
probs <- p_1(x)
g <- ifelse(rbinom(length(x), 1, probs)==1 ,1, 2)
dat_ent <- data_frame(x = x, p_1 = probs, g = factor(g))
dat_ent %>% select(x, g) 

## # A tibble: 500 x 2
##         x g    
##     <dbl> <fct>
##  1  0.532 1    
##  2 25.4   1    
##  3 37.5   1    
##  4 20.9   1    
##  5 70.9   2    
##  6 14.8   1    
##  7 49.4   1    
##  8 20.9   1    
##  9 35.5   1    
## 10  9.83  1    
## # ... with 490 more rows
…
skin triceps skin fold thickness (mm).

bmi body mass index (weight in kg/(height in m)^2).

ped diabetes pedigree function.

age age in years.

type Yes or No, for diabetic according to WHO criteria.

diabetes_ent <- as_data_frame(MASS::Pima.tr)
diabetes_pr <- as_data_frame(MASS::Pima.te)
diabetes_ent

## # A tibble: 200 x 8
##    npreg   glu    bp  skin   bmi   ped   age type 
##  * <int> <int> <int> <int> <dbl> <dbl> <int> <fct>
##  1     5    86    68    28  30.2 0.364    24 No   
##  2     7   195    70    33  25.1 0.163    55 Yes  
##  3     5    77    82    41  35.8 0.156    35 No   
##  4     0   165    76    43  47.9 0.259    26 No   
##  5     0   107    60    25  26.4 0.133    23 No   
##  6     5    97    76    27  35.6 0.378    52 Yes  
##  7     3    83    58    31  34.3 0.336    25 No   
##  8     1   193    50    16  25.9 0.655    24 No   
##  9     3   142    80    15  32.4 0.2      63 No   
## 10     2   128    78    37  43.3 1.22     31 Yes  
## # ... with 190 more rows
…
s <- function(x) -2*log(x)

vmc <- kknn(g ~ x, train = dat_ent,  k = 60,
              test = dat_ent, kernel = 'rectangular')
dat_dev <- dat_ent %>% select(x,g)
dat_dev$hat_p_1 <- predict(vmc, type ='prob')[,1]
dat_dev$hat_p_2 <- predict(vmc, type ='prob')[,2]
dat_dev <- dat_dev %>% mutate(hat_p_g = ifelse(g==1, hat_p_1, hat_p_2))

Nótese que dependiendo de qué clase observamos (columna \(g\)), extraemos la
probabilidad correspondiente a la columna hat_p_g:

head(dat_dev, 50)

## # A tibble: 50 x 5
##         x g     hat_p_1 hat_p_2 hat_p_g
##     <dbl> <fct>   <dbl>   <dbl>   <dbl>
##  1  0.532 1       0.967  0.0333   0.967
##  2 25.4   1       0.883  0.117    0.883
##  3 37.5   1       0.85   0.15     0.85 
##  4 20.9   1       0.9    0.1      0.9  
##  5 70.9   2       0.6    0.4      0.4  
##  6 14.8   1       0.933  0.0667   0.933
##  7 49.4   1       0.8    0.2      0.8  
##  8 20.9   1       0.9    0.1      0.9  
##  9 35.5   1       0.75   0.25     0.75 
## 10  9.83  1       0.933  0.0667   0.933
## # ... with 40 more rows
…
Igual que en regresión lineal, regresión logística supera a métodos
más sofisticados o nuevos en numerosos ejemplos. Las razones son similares:
la rigidez de regresión logística es una fortaleza cuando la estructura
lineal es una buena aproximación.

Ejercicio: datos de diabetes

Ya están divididos los datos en entrenamiento y prueba

diabetes_ent <- as_data_frame(MASS::Pima.tr)
diabetes_pr <- as_data_frame(MASS::Pima.te)
diabetes_ent

## # A tibble: 200 x 8
##    npreg   glu    bp  skin   bmi   ped   age type 
##  * <int> <int> <int> <int> <dbl> <dbl> <int> <fct>
##  1     5    86    68    28  30.2 0.364    24 No   
##  2     7   195    70    33  25.1 0.163    55 Yes  
##  3     5    77    82    41  35.8 0.156    35 No   
##  4     0   165    76    43  47.9 0.259    26 No   
##  5     0   107    60    25  26.4 0.133    23 No   
##  6     5    97    76    27  35.6 0.378    52 Yes  
##  7     3    83    58    31  34.3 0.336    25 No   
##  8     1   193    50    16  25.9 0.655    24 No   
##  9     3   142    80    15  32.4 0.2      63 No   
## 10     2   128    78    37  43.3 1.22     31 Yes  
## # ... with 190 more rows
…
